Scraping police-killing data with R
…
## List of 1
##  $ : tibble [326 × 8] (S3: tbl_df/tbl/data.frame)
##   ..$ Date  : chr [1:326] "2020-01-01" "2020-01-01" "2020-01-01" "2020-01-01" ...
##   ..$ Name  : chr [1:326] "Derrick A. Elseth" "Teddy James Maverick Varner" "Gerardo Antonio Conchas-Bustas" "Gabriel Strickland" ...
##   ..$ Age   : int [1:326] 24 29 20 25 26 69 26 NA 31 30 ...
##   ..$ Gender: chr [1:326] "M" "M" "M" "M" ...
##   ..$ Race  : chr [1:326] "" "" "O" "" ...
##   ..$ State : chr [1:326] "VA" "OR" "CO" "CA" ...
##   ..$ *     : chr [1:326] "G" "G" "K" "T" ...
##   ..$ Source: chr [1:326] "wric.com, nbc12.com" "kobi5.com, kdrv.com, kdrv.com" "denverpost.com, kdvr.com" "sacbee.com" ...

whole_table[[1]]

## # A tibble: 326 × 8
##    Date       Name                           Age Gender Race  State `*`   Source
##    <chr>      <chr>                        <int> <chr>  <chr> <chr> <chr> <chr> 
##  1 2020-01-01 Derrick A. Elseth               24 M      ""    VA    G     wric.…
##  2 2020-01-01 Teddy James Maverick Varner     29 M      ""    OR    G     kobi5…
##  3 2020-01-01 Gerardo Antonio Conchas-Bus…    20 M      "O"   CO    K     denve…
##  4 2020-01-01 Gabriel Strickland              25 M      ""    CA    T     sacbe…
##  5 2020-01-02 Jeffery Dale Millsap            26 M      ""    MO    G     kansa…
##  6 2020-01-02 Stanley Hayes                   69 M      ""    OR    G     kxl.c…
##  7 2020-01-02 Jamari Daiwon Tarver            26 M      "B"   NV    V     ktnv.…
##  8 2020-01-02 An unidentified person          NA M      ""    CA    G     cbslo…
##  9 2020-01-02 Mariano Ocon                    31 M      "H"   IL    G     wgntv…
## 10 2020-01-02 Michael Gregory                 30 M      ""    CT    K     wtnh.…
## # … with 316 more rows

whole_table

## [[1]]
## # A tibble: 326 × 8
##    Date       Name                           Age Gender Race  State `*`   Source
##    <chr>      <chr>                        <int> <chr>  <chr> <chr> <chr> <chr> 
##  1 2020-01-01 Derrick A. Elseth               24 M      ""    VA    G     wric.…
##  2 2020-01-01 Teddy James Maverick Varner     29 M      ""    OR    G     kobi5…
##  3 2020-01-01 Gerardo Antonio Conchas-Bus…    20 M      "O"   CO    K     denve…
##  4 2020-01-01 Gabriel Strickland              25 M      ""    CA    T     sacbe…
##  5 2020-01-02 Jeffery Dale Millsap            26 M      ""    MO    G     kansa…
##  6 2020-01-02 Stanley Hayes                   69 M      ""    OR    G     kxl.c…
##  7 2020-01-02 Jamari Daiwon Tarver            26 M      "B"   NV    V     ktnv.…
##  8 2020-01-02 An unidentified person          NA M      ""    CA    G     cbslo…
##  9 2020-01-02 Mariano Ocon                    31 M      "H"   IL    G     wgntv…
## 10 2020-01-02 Michael Gregory                 30 M      ""    CT    K     wtnh.…
## # … with 316 more rows
…
